{
    "items": [
        {
            "id": "cust_fixture_primary",
            "mode": "test",
            "object": "customer",
            "email": "customer.fixture@example.test",
            "name": "Primary Fixture Customer",
            "country": "US",
            "created_at": "2026-03-07T06:49:22.500Z",
            "updated_at": "2026-03-07T06:51:33.311Z"
        }
    ],
    "pagination": {
        "total_records": 26,
        "total_pages": 26,
        "current_page": 1,
        "next_page": 2,
        "prev_page": null
    }
}
