{
    "items": [
        {
            "id": "tran_fixture_invoice",
            "mode": "test",
            "object": "transaction",
            "amount": 1900,
            "amount_paid": 1900,
            "currency": "USD",
            "type": "invoice",
            "tax_country": "US",
            "tax_amount": 0,
            "status": "paid",
            "refunded_amount": null,
            "order": "ord_fixture_primary",
            "subscription": "sub_fixture_active",
            "customer": "cust_fixture_primary",
            "description": "Monthly subscription renewal",
            "period_start": 1772866238000,
            "period_end": 1775544638000,
            "created_at": 1772866243426
        }
    ],
    "pagination": {
        "total_records": 44,
        "total_pages": 44,
        "current_page": 1,
        "next_page": 2,
        "prev_page": null
    }
}
